solutions/Data_analysis/Test_Fald2.csv

#Digilent WaveForms Oscilloscope Acquisition
#Device Name: Discovery2
#Serial Number: SN:210321AD93CE
#Date Time: 2024-12-02 09:18:36.932
#Sample rate: 5000Hz
#Samples: 13636
#Trigger: Source: Channel 1 Type: Edge Condition: Rising Level: 0 V Hyst.: Auto HoldOff: 0 s
#Channel 1: Range: 500 mV/div Offset: 0 V Sample Mode: Average
#Channel 2: Range: 500 mV/div Offset: 0 V Sample Mode: Average
#Power Supplies: ON
#Positive Supply: ON
#Voltage: 5 V
#Negative Supply: ON
#Voltage: -1 V
Time (s),Channel 1 (V),Channel 2 (V)
-0.4975999999999998,0.7682704496029712,-0.0006580287897080697
-0.4973999999999998,0.7682704496029712,-0.0003195725140787628
-0.4971999999999999,0.7686073981941003,-0.0006580287897080697
-0.4969999999999999,0.7686073981941003,-0.0006580287897080697
-0.4967999999999999,0.7686073981941003,-0.0006580287897080697
-0.4965999999999999,0.7686073981941003,-0.0003195725140787628
-0.4964,0.7682704496029712,-0.0003195725140787628
-0.4962,0.7686073981941003,-0.0003195725140787628
-0.496,0.7682704496029712,-0.0003195725140787628
-0.4958,0.7682704496029712,-0.0003195725140787628
-0.4956,0.7682704496029712,-0.0003195725140787628
-0.4954000000000001,0.7682704496029712,-0.0003195725140787628
-0.4952000000000001,0.7682704496029712,-0.0003195725140787628
-0.4950000000000001,0.7682704496029712,-0.0003195725140787628
-0.4948000000000001,0.7682704496029712,-0.0003195725140787628
-0.4946000000000002,0.7682704496029712,-0.0003195725140787628
-0.4944000000000002,0.7682704496029712,-0.0003195725140787628
-0.4942000000000002,0.7682704496029712,-0.0003195725140787628
-0.4940000000000002,0.7682704496029712,-0.0003195725140787628
-0.4937999999999998,0.7682704496029712,-0.0003195725140787628
-0.4935999999999998,0.7682704496029712,-0.0003195725140787628
-0.4933999999999998,0.7682704496029712,-0.0003195725140787628
-0.4931999999999999,0.7682704496029712,-0.0003195725140787628
-0.4929999999999999,0.7682704496029712,-0.0003195725140787628
-0.4927999999999999,0.7682704496029712,-0.0003195725140787628
-0.4925999999999999,0.7679335010118422,-0.0003195725140787628
-0.4923999999999999,0.7682704496029712,-0.0003195725140787628
-0.4922,0.7682704496029712,-0.0003195725140787628
-0.492,0.7682704496029712,-0.0003195725140787628
-0.4918,0.7682704496029712,-0.0003195725140787628
-0.4916,0.7682704496029712,-0.0003195725140787628
-0.4914000000000001,0.7679335010118422,-0.0003195725140787628
-0.4912000000000001,0.7679335010118422,-0.0003195725140787628
-0.4910000000000001,0.7679335010118422,-0.0003195725140787628
-0.4908000000000001,0.7682704496029712,-0.0003195725140787628
-0.4906000000000001,0.7682704496029712,-0.0003195725140787628
-0.4904000000000002,0.7679335010118422,-0.0003195725140787628
-0.4902000000000002,0.7679335010118422,-0.0003195725140787628
-0.4900000000000002,0.7679335010118422,-0.0003195725140787628
-0.4897999999999998,0.7682704496029712,-0.0003195725140787628
-0.4895999999999998,0.7682704496029712,-0.0003195725140787628
-0.4893999999999998,0.7682704496029712,-0.0003195725140787628
-0.4891999999999999,0.7679335010118422,-0.0003195725140787628
-0.4889999999999999,0.7682704496029712,-0.0003195725140787628
-0.4887999999999999,0.7682704496029712,-0.0003195725140787628
-0.4885999999999999,0.7682704496029712,-0.0003195725140787628
-0.4883999999999999,0.7682704496029712,-0.0003195725140787628
-0.4882,0.7682704496029712,-0.0003195725140787628
-0.488,0.7682704496029712,-0.0003195725140787628
-0.4878,0.7682704496029712,-0.0003195725140787628
-0.4876,0.7682704496029712,-0.0003195725140787628
-0.4874000000000001,0.7682704496029712,-0.0003195725140787628
-0.4872000000000001,0.7682704496029712,-0.0003195725140787628
-0.4870000000000001,0.7682704496029712,-0.0003195725140787628
-0.4868000000000001,0.7682704496029712,-0.0003195725140787628
-0.4866000000000001,0.7682704496029712,-0.0003195725140787628
-0.4864000000000002,0.7679335010118422,1.888376155054417e-05
-0.4862000000000002,0.7679335010118422,1.888376155054417e-05
-0.4860000000000002,0.7679335010118422,1.888376155054417e-05
-0.4857999999999998,0.7679335010118415,1.888376155054417e-05
-0.4855999999999998,0.7675965524207132,1.888376155054417e-05
-0.4853999999999998,0.7675965524207132,1.888376155054417e-05
-0.4851999999999999,0.7679335010118422,1.888376155054417e-05
-0.4849999999999999,0.7675965524207132,1.888376155054417e-05
-0.4847999999999999,0.7679335010118422,1.888376155054417e-05
-0.4845999999999999,0.7675965524207132,1.888376155054417e-05
-0.4843999999999999,0.7679335010118422,1.888376155054417e-05
-0.4842,0.7675965524207132,1.888376155054417e-05
-0.484,0.7675965524207132,1.888376155054417e-05
-0.4838,0.7675965524207132,1.888376155054417e-05
-0.4836,0.7675965524207132,1.888376155054417e-05
-0.4834000000000001,0.7675965524207132,1.888376155054417e-05
-0.4832000000000001,0.7679335010118422,1.888376155054417e-05
-0.4830000000000001,0.7675965524207132,1.888376155054417e-05
-0.4828000000000001,0.7675965524207132,-0.0003195725140787628
-0.4826000000000001,0.7679335010118422,1.888376155054417e-05
-0.4824000000000002,0.7679335010118422,-0.0003195725140787628
-0.4822000000000002,0.7679335010118422,-0.0003195725140787628
-0.4820000000000002,0.7679335010118422,-0.0003195725140787628
-0.4817999999999998,0.7679335010118422,-0.0003195725140781471
-0.4815999999999998,0.7679335010118422,1.888376154992852e-05
-0.4813999999999998,0.7679335010118422,-0.0003195725140787628
-0.4811999999999999,0.7679335010118422,-0.0003195725140787628
-0.4809999999999999,0.7679335010118422,-0.0003195725140787628
-0.4807999999999999,0.7679335010118422,-0.0003195725140787628
-0.4805999999999999,0.7679335010118422,-0.0003195725140787628
-0.4803999999999999,0.7682704496029712,-0.0003195725140787628
-0.4802,0.7682704496029712,-0.0003195725140787628
-0.48,0.7682704496029712,-0.0003195725140787628
-0.4798,0.7682704496029712,-0.0003195725140787628
-0.4796,0.7682704496029712,-0.0003195725140787628
-0.4794,0.7682704496029712,-0.0003195725140787628
-0.4792000000000001,0.7682704496029712,-0.0003195725140787628
-0.4790000000000001,0.7682704496029712,-0.0003195725140787628
-0.4788000000000001,0.7682704496029712,-0.0003195725140787628
-0.4786000000000001,0.7682704496029712,-0.0003195725140787628
-0.4784000000000002,0.7682704496029712,-0.0003195725140787628
-0.4782000000000002,0.7682704496029712,-0.0006580287897080697
-0.4780000000000002,0.7686073981940996,-0.0006580287897080697
-0.4777999999999998,0.7686073981941003,-0.0006580287897080697
-0.4775999999999998,0.7686073981941003,-0.0006580287897080697
-0.4773999999999998,0.7686073981941003,-0.0006580287897080697
-0.4771999999999998,0.7686073981941003,-0.0006580287897080697
-0.4769999999999999,0.7686073981941003,-0.0006580287897080697
-0.4767999999999999,0.7686073981941003,-0.0006580287897080697
-0.4765999999999999,0.7686073981941003,-0.0006580287897080697
-0.4763999999999999,0.7686073981941003,-0.0003195725140787628
-0.4762,0.7686073981941003,-0.0003195725140787628
-0.476,0.7686073981941003,-0.0003195725140787628
-0.4758,0.7682704496029712,-0.0003195725140787628
-0.4756,0.7682704496029712,-0.0003195725140787628
-0.4754,0.7682704496029712,-0.0003195725140787628
-0.4752000000000001,0.7682704496029712,-0.0003195725140787628
-0.4750000000000001,0.7682704496029712,-0.0003195725140787628
-0.4748000000000001,0.7682704496029712,-0.0003195725140787628
-0.4746000000000001,0.7682704496029712,-0.0003195725140787628
-0.4744000000000002,0.7682704496029712,-0.0003195725140787628
-0.4742000000000002,0.7682704496029712,-0.0003195725140787628
-0.4740000000000002,0.7682704496029712,-0.0003195725140787628
-0.4738000000000002,0.7682704496029712,-0.0003195725140787628
-0.4735999999999998,0.7682704496029712,-0.0003195725140787628
-0.4733999999999998,0.7682704496029712,-0.0003195725140787628
-0.4731999999999998,0.7679335010118422,-0.0003195725140787628
-0.4729999999999999,0.7682704496029712,-0.0003195725140787628
-0.4727999999999999,0.7682704496029712,-0.0003195725140787628
-0.4725999999999999,0.7682704496029712,-0.0003195725140787628
-0.4723999999999999,0.7682704496029712,-0.0003195725140787628
-0.4722,0.7682704496029712,-0.0003195725140787628
-0.472,0.7682704496029712,-0.0003195725140787628
-0.4718,0.7679335010118422,-0.0003195725140787628
-0.4716,0.7682704496029712,-0.0003195725140787628
-0.4714,0.7682704496029712,-0.0003195725140787628
-0.4712000000000001,0.7682704496029712,-0.0003195725140787628
-0.4710000000000001,0.7682704496029712,-0.0003195725140787628
-0.4708000000000001,0.7679335010118422,-0.0003195725140787628
-0.4706000000000001,0.7682704496029712,-0.0003195725140787628
-0.4704000000000002,0.7682704496029712,-0.0003195725140787628
-0.4702000000000002,0.7682704496029712,-0.0003195725140787628
-0.4700000000000002,0.7679335010118429,-0.0003195725140787628
-0.4698000000000002,0.7682704496029705,-0.0003195725140787628
-0.4695999999999998,0.7682704496029712,-0.0003195725140787628
-0.4693999999999998,0.7682704496029712,-0.0003195725140787628
-0.4691999999999998,0.7682704496029712,-0.0003195725140787628
-0.4689999999999999,0.7682704496029712,-0.0003195725140787628
-0.4687999999999999,0.7682704496029712,-0.0003195725140787628
-0.4685999999999999,0.7682704496029712,-0.0003195725140787628
-0.4683999999999999,0.7682704496029712,-0.0003195725140787628
-0.4681999999999999,0.7682704496029712,-0.0003195725140787628
-0.468,0.7682704496029712,-0.0003195725140787628
-0.4678,0.7682704496029712,-0.0003195725140787628
-0.4676,0.7682704496029712,-0.0003195725140787628
-0.4674,0.7682704496029712,-0.0003195725140787628
-0.4672000000000001,0.7682704496029712,-0.0003195725140787628
-0.4670000000000001,0.7682704496029712,-0.0003195725140787628
-0.4668000000000001,0.7679335010118422,-0.0003195725140787628
-0.4666000000000001,0.7679335010118422,1.888376155054417e-05
-0.4664000000000001,0.7679335010118422,1.888376155054417e-05
-0.4662000000000002,0.7679335010118422,-0.0003195725140787628
-0.4660000000000002,0.7679335010118422,-0.0003195725140787628
-0.4658000000000002,0.7675965524207139,1.888376154992851e-05
-0.4655999999999998,0.7679335010118415,1.888376155054417e-05
-0.4653999999999998,0.7675965524207132,1.888376155054417e-05
-0.4651999999999998,0.7675965524207132,1.888376155054417e-05
-0.4649999999999999,0.7679335010118422,1.888376155054417e-05
-0.4647999999999999,0.7675965524207132,1.888376155054417e-05
-0.4645999999999999,0.7675965524207132,1.888376155054417e-05
-0.4643999999999999,0.7675965524207132,1.888376155054417e-05
-0.4641999999999999,0.7679335010118422,1.888376155054417e-05
-0.464,0.7679335010118422,1.888376155054417e-05
-0.4638,0.7675965524207132,1.888376155054417e-05
-0.4636,0.7675965524207132,1.888376155054417e-05
-0.4634,0.7675965524207132,-0.0003195725140787628
-0.4632000000000001,0.7675965524207132,-0.0003195725140787628
-0.4630000000000001,0.7679335010118422,1.888376155054417e-05
-0.4628000000000001,0.7679335010118422,1.888376155054417e-05
-0.4626000000000001,0.7679335010118422,-0.0003195725140787628
-0.4624000000000001,0.7679335010118422,-0.0003195725140787628
-0.4622000000000002,0.7679335010118422,-0.0003195725140787628
-0.4620000000000002,0.7679335010118422,-0.0003195725140787628
-0.4618000000000002,0.7679335010118422,-0.0003195725140787628
-0.4615999999999998,0.7679335010118422,-0.0003195725140787628
-0.4613999999999998,0.7679335010118422,-0.0003195725140787628
-0.4611999999999998,0.7679335010118422,-0.0003195725140787628
-0.4609999999999999,0.7679335010118422,-0.0003195725140787628
-0.4607999999999999,0.7679335010118422,-0.0003195725140787628
-0.4605999999999999,0.7679335010118422,-0.0003195725140787628
-0.4603999999999999,0.7682704496029712,-0.0003195725140787628
-0.4601999999999999,0.7682704496029712,-0.0003195725140787628
-0.46,0.7682704496029712,-0.0003195725140787628
-0.4598,0.7682704496029712,-0.0006580287897080697
-0.4596,0.7682704496029712,-0.0003195725140787628
-0.4594,0.7682704496029712,-0.0003195725140787628
-0.4592000000000001,0.7682704496029712,-0.0006580287897080697
-0.4590000000000001,0.7682704496029712,-0.0003195725140787628
-0.4588000000000001,0.7682704496029712,-0.0003195725140787628
-0.4586000000000001,0.7682704496029712,-0.0003195725140787628
-0.4584000000000001,0.7682704496029712,-0.0006580287897080697
-0.4582000000000002,0.7686073981941003,-0.0006580287897080697
-0.4580000000000002,0.7686073981941003,-0.0006580287897080697
-0.4578000000000002,0.7686073981941003,-0.0006580287897080697
-0.4575999999999998,0.7686073981941003,-0.0006580287897080697
-0.4573999999999998,0.7686073981941003,-0.0006580287897080697
-0.4571999999999998,0.7686073981941003,-0.0006580287897080697
-0.4569999999999999,0.7686073981941003,-0.0006580287897080697
-0.4567999999999999,0.7686073981941003,-0.0006580287897080697
-0.4565999999999999,0.7686073981941003,-0.0006580287897080697
-0.4563999999999999,0.7682704496029712,-0.0006580287897080697
-0.4561999999999999,0.7682704496029712,-0.0006580287897080697
-0.456,0.7682704496029712,-0.0006580287897080697
-0.4558,0.7682704496029712,-0.0003195725140787628
-0.4556,0.7682704496029712,-0.0003195725140787628
-0.4554,0.7682704496029712,-0.0003195725140787628
-0.4552,0.7682704496029712,-0.0003195725140787628
-0.4550000000000001,0.7682704496029712,-0.0003195725140787628
-0.4548000000000001,0.7682704496029712,-0.0003195725140787628
-0.4546000000000001,0.7682704496029712,-0.0003195725140787628
-0.4544000000000001,0.7682704496029712,-0.0003195725140787628
-0.4542000000000002,0.7682704496029712,-0.0003195725140787628
-0.4540000000000002,0.7682704496029712,-0.0003195725140787628
-0.4538000000000002,0.7682704496029712,-0.0003195725140787628
-0.4535999999999998,0.7682704496029712,-0.0003195725140787628
-0.4533999999999998,0.7682704496029712,-0.0003195725140787628
-0.4531999999999998,0.7682704496029712,-0.0003195725140787628
-0.4529999999999998,0.7682704496029712,-0.0003195725140787628
-0.4527999999999999,0.7682704496029712,-0.0003195725140787628
-0.4525999999999999,0.7682704496029712,-0.0003195725140787628
-0.4523999999999999,0.7682704496029712,-0.0003195725140787628
-0.4521999999999999,0.7682704496029712,-0.0003195725140787628
-0.452,0.7682704496029712,-0.0003195725140787628
-0.4518,0.7682704496029712,-0.0003195725140787628
-0.4516,0.7682704496029712,-0.0003195725140787628
-0.4514,0.7682704496029712,-0.0003195725140787628
-0.4512,0.7682704496029712,-0.0003195725140787628
-0.4510000000000001,0.7682704496029712,-0.0003195725140787628
-0.4508000000000001,0.7682704496029712,-0.0003195725140787628
-0.4506000000000001,0.7682704496029712,-0.0003195725140787628
-0.4504000000000001,0.7682704496029712,-0.0003195725140787628
-0.4502000000000002,0.7682704496029712,-0.0003195725140787628
-0.4500000000000002,0.7682704496029712,-0.0003195725140787628
-0.4498000000000002,0.7682704496029712,-0.0003195725140787628
-0.4496000000000002,0.7682704496029712,-0.0003195725140787628
-0.4493999999999998,0.7682704496029712,-0.0003195725140787628
-0.4491999999999998,0.7682704496029712,-0.0003195725140787628
-0.4489999999999998,0.7682704496029712,-0.0003195725140787628
-0.4487999999999999,0.7682704496029712,-0.0003195725140787628
-0.4485999999999999,0.7682704496029712,-0.0003195725140787628
-0.4483999999999999,0.7682704496029712,-0.0003195725140787628
-0.4481999999999999,0.7682704496029712,-0.0003195725140787628
-0.448,0.7682704496029712,-0.0003195725140787628
-0.4478,0.7682704496029712,-0.0003195725140787628
-0.4476,0.7682704496029712,-0.0003195725140787628
-0.4474,0.7682704496029712,-0.0003195725140787628
-0.4472,0.7682704496029712,-0.0003195725140787628
-0.4470000000000001,0.7682704496029712,-0.0003195725140787628
-0.4468000000000001,0.7682704496029712,-0.0003195725140787628
-0.4466000000000001,0.7679335010118422,-0.0003195725140787628
-0.4464000000000001,0.7679335010118422,-0.0003195725140787628
-0.4462000000000002,0.7679335010118422,-0.0003195725140787628
-0.4460000000000002,0.7679335010118422,-0.0003195725140787628
-0.4458000000000002,0.7679335010118422,1.888376154992851e-05
-0.4456000000000002,0.7675965524207139,1.888376155054417e-05
-0.4453999999999998,0.7675965524207132,1.888376155054417e-05
-0.4451999999999998,0.7675965524207132,1.888376155054417e-05
-0.4449999999999998,0.7675965524207132,1.888376155054417e-05
-0.4447999999999999,0.7679335010118422,1.888376155054417e-05
-0.4445999999999999,0.7675965524207132,1.888376155054417e-05
-0.4443999999999999,0.7675965524207132,1.888376155054417e-05
-0.4441999999999999,0.7679335010118422,1.888376155054417e-05
-0.444,0.7679335010118422,1.888376155054417e-05
-0.4438,0.7675965524207132,-0.0003195725140787628
-0.4436,0.7675965524207132,1.888376155054417e-05
-0.4434,0.7679335010118422,1.888376155054417e-05
-0.4432,0.7679335010118422,1.888376155054417e-05
-0.4430000000000001,0.7679335010118422,1.888376155054417e-05
-0.4428000000000001,0.7679335010118422,-0.0003195725140787628
-0.4426000000000001,0.7679335010118422,1.888376155054417e-05
-0.4424000000000001,0.7679335010118422,-0.0003195725140787628
-0.4422000000000001,0.7679335010118422,-0.0003195725140787628
-0.4420000000000002,0.7679335010118422,-0.0003195725140787628
-0.4418000000000002,0.7679335010118422,-0.0003195725140787628
-0.4416000000000002,0.7679335010118422,-0.0003195725140787628
-0.4413999999999998,0.7679335010118422,-0.0003195725140787628
-0.4411999999999998,0.7679335010118422,-0.0003195725140787628
-0.4409999999999998,0.7679335010118422,-0.0003195725140787628
-0.4407999999999999,0.7679335010118422,-0.0003195725140787628
-0.4405999999999999,0.7679335010118422,-0.0003195725140787628
-0.4403999999999999,0.7679335010118422,-0.0003195725140787628
-0.4401999999999999,0.7682704496029712,-0.0003195725140787628
-0.4399999999999999,0.7682704496029712,-0.0003195725140787628
-0.4398,0.7682704496029712,-0.0003195725140787628
-0.4396,0.7682704496029712,-0.0003195725140787628
-0.4394,0.7682704496029712,-0.0003195725140787628
-0.4392,0.7682704496029712,-0.0003195725140787628
-0.4390000000000001,0.7682704496029712,-0.0003195725140787628
-0.4388000000000001,0.7682704496029712,-0.0006580287897080697
-0.4386000000000001,0.7682704496029712,-0.0003195725140787628
-0.4384000000000001,0.7682704496029712,-0.0003195725140787628
-0.4382000000000001,0.7682704496029712,-0.0003195725140787628
-0.4380000000000002,0.7686073981941003,-0.0006580287897080697
-0.4378000000000002,0.7686073981941003,-0.0006580287897080697
-0.4376000000000002,0.7686073981941003,-0.0006580287897080697
-0.4373999999999998,0.7686073981941003,-0.0006580287897080697
-0.4371999999999998,0.7686073981941003,-0.0006580287897080697
-0.4369999999999998,0.7686073981941003,-0.0006580287897080697
-0.4367999999999999,0.7686073981941003,-0.0006580287897080697
-0.4365999999999999,0.7686073981941003,-0.0006580287897080697
-0.4363999999999999,0.7686073981941003,-0.0006580287897080697
-0.4361999999999999,0.7686073981941003,-0.0003195725140787628
-0.4359999999999999,0.7686073981941003,-0.0006580287897080697
-0.4358,0.7682704496029712,-0.0006580287897080697
-0.4356,0.7682704496029712,-0.0003195725140787628
-0.4354,0.7682704496029712,-0.0003195725140787628
-0.4352,0.7682704496029712,-0.0003195725140787628
-0.4350000000000001,0.7682704496029712,-0.0003195725140787628
-0.4348000000000001,0.7682704496029712,-0.0003195725140787628
-0.4346000000000001,0.7682704496029712,-0.0003195725140787628
-0.4344000000000001,0.7682704496029712,-0.0003195725140787628
-0.4342000000000001,0.7682704496029712,-0.0003195725140787628
-0.4340000000000002,0.7682704496029712,-0.0003195725140787628
-0.4338000000000002,0.7682704496029712,-0.0003195725140787628
-0.4336000000000002,0.7682704496029712,-0.0003195725140787628
-0.4333999999999998,0.7682704496029712,-0.0003195725140787628
-0.4331999999999998,0.7682704496029712,-0.0003195725140787628
-0.4329999999999998,0.7682704496029712,-0.0003195725140787628
-0.4327999999999999,0.7682704496029712,-0.0003195725140787628
-0.4325999999999999,0.7682704496029712,-0.0003195725140787628
-0.4323999999999999,0.7682704496029712,-0.0003195725140787628
-0.4321999999999999,0.7682704496029712,-0.0003195725140787628
-0.4319999999999999,0.7682704496029712,-0.0003195725140787628
